{
  "name": "",
  "isOrdered": true,
  "folders": {
    "__pycache__": {
      "name": "__pycache__",
      "isOrdered": true,
      "folders": {},
      "files": {}
    },
    "api": {
      "name": "api",
      "isOrdered": true,
      "folders": {
        "__pycache__": {
          "name": "__pycache__",
          "isOrdered": true,
          "folders": {},
          "files": {}
        },
        "jurexpert": {
          "name": "jurexpert",
          "isOrdered": true,
          "folders": {},
          "files": {}
        },
        "models": {
          "name": "models",
          "isOrdered": true,
          "folders": {},
          "files": {}
        },
        "resources": {
          "name": "resources",
          "isOrdered": true,
          "folders": {},
          "files": {}
        },
        "view": {
          "name": "view",
          "isOrdered": true,
          "folders": {},
          "files": {}
        }
      },
      "files": {
        "todo": 0
      }
    },
    "arnold_config": {
      "name": "arnold_config",
      "isOrdered": true,
      "folders": {},
      "files": {}
    },
    "deploy": {
      "name": "deploy",
      "isOrdered": true,
      "folders": {},
      "files": {}
    },
    "env": {
      "name": "env",
      "isOrdered": true,
      "folders": {},
      "files": {}
    },
    "log": {
      "name": "log",
      "isOrdered": true,
      "folders": {},
      "files": {}
    }
  },
  "files": {}
}